              ---Sequential Output (nosync)--- ---Sequential Input-- --Rnd Seek-
              -Per Char- --Block--- -Rewrite-- -Per Char- --Block--- --04k (03)-
Machine    MB K/sec %CPU K/sec %CPU K/sec %CPU K/sec %CPU K/sec %CPU   /sec %CPU
lin    1*  10 41541 99.0453037 88.5 538607 84.2 45036  1001317719  103 70738.9 99.0
              ---Sequential Output (nosync)--- ---Sequential Input-- --Rnd Seek-
              -Per Char- --Block--- -Rewrite-- -Per Char- --Block--- --04k (03)-
Machine    MB K/sec %CPU K/sec %CPU K/sec %CPU K/sec %CPU K/sec %CPU   /sec %CPU
lin    1*1000 50077 92.8 67001 18.3 28909  7.2 21880 58.52619421 99.3 71183.2 92.5
